3316534, 24core
3316520, 96core
3316562, 120core
3316580, 96core
3316776, 96core, localoutput
3316836, 96core, localoutput, memorylock
3316852, getmemory lock
3316938, set memory lock
3316970, increase memory & print log
3317058, set memory to unlimited
3328546, FDR4, single node, test for missing bin file
3328578, FDR5, single node, test for missing bin file
3328614, FDR5, single node, use example
3328616, FDR4, single node, use example
3328634, FDR4, 96cores, use example
3328636, FDR4, 96cores, 16*16
3328638, FDR4, 96cores, s362ani
3328648, FDR4, 96cores, s362ani 16*16
3328774, FDR4, 96cores, same as GPU version
3328854, FDR4, 96cores, use example
3328888, FDR4, 96cores, 16*16, use new example
3328956, FDR4, 384cores, 16*16, use new example
3328974, FDR5, 384cores, 16*16, use new example
3328980, FDR5, 96cores, 16*16, use new example
3328982, FDR5, 384cores, 32*32, use new example
3329014, FDR5, 96cores, 32*32, use new example
3329046, FDR5, 96cores, 96*96, use new example
3330288, FDR5, 96cores, 96*96, use new example
3330290, FDR5, 384cores, 32*32, use new example
3330308, FDR5, 384cores, 32*32, use new example remove MPI_DATABASE
3330494, FDR5, 24cores, 32*32, use new example remove MPI_DATABASE
3330496, FDR5, 96cores, 32*32, use new example remove MPI_DATABASE
3330562, FDR5, 96cores, 32*32, use new example remove MPI_DATABASE 
3330652, FDR4, 384cores, 32*32, use new example remove MPI_DATABASE
3330668, FDR4, 96cores, 32*32, use /tmp as TMP dir, failed
3330684, FDR4, 384core, 32*32
3330700, FDR4, 384core, 32*32, MEMORY_INSTALLED_PER_CORE_IN_GB = 512.d0
3332136, FDR5, 384core, 32*32
3332256, QDR2, 384core, 32*32, output log
3332276, QDR2, 96core, 32*32, output log
3332624, FDR5, 96core
